{
  "project_info": {
    "project_number": "832059417620",
    "firebase_url": "https://testing-fdef9.firebaseio.com",
    "project_id": "testing-fdef9",
    "storage_bucket": "testing-fdef9.appspot.com"
  },
  "client": [
    {
      "client_info": {
        "mobilesdk_app_id": "1:832059417620:android:8021523bfc22bbd8393301",
        "android_client_info": {
          "package_name": "academy.learnprogramming"
        }
      },
      "oauth_client": [
        {
          "client_id": "832059417620-dadsrcrmm6141g59ccdq42iao8f0g3af.apps.googleusercontent.com",
          "client_type": 1,
          "android_info": {
            "package_name": "academy.learnprogramming",
            "certificate_hash": "2e8f0610c1bc5acf5e0ac5580e46bb862a611b47"
          }
        },
        {
          "client_id": "832059417620-j2ggejoicgaog8pvqvft4d3cqa5kmffa.apps.googleusercontent.com",
          "client_type": 3
        }
      ],
      "api_key": [
        {
          "current_key": "AIzaSyDfrL3Y8WgUgZHqeXPVxE6gcJpfJw-XMso"
        }
      ],
      "services": {
        "appinvite_service": {
          "other_platform_oauth_client": [
            {
              "client_id": "832059417620-j2ggejoicgaog8pvqvft4d3cqa5kmffa.apps.googleusercontent.com",
              "client_type": 3
            }
          ]
        }
      }
    },
    {
      "client_info": {
        "mobilesdk_app_id": "1:832059417620:android:49dda4b626b36500393301",
        "android_client_info": {
          "package_name": "com.my.main"
        }
      },
      "oauth_client": [
        {
          "client_id": "832059417620-cmg17tclcsctjasahaku61otnqgr8f1f.apps.googleusercontent.com",
          "client_type": 1,
          "android_info": {
            "package_name": "com.my.main",
            "certificate_hash": "2e8f0610c1bc5acf5e0ac5580e46bb862a611b47"
          }
        },
        {
          "client_id": "832059417620-j2ggejoicgaog8pvqvft4d3cqa5kmffa.apps.googleusercontent.com",
          "client_type": 3
        }
      ],
      "api_key": [
        {
          "current_key": "AIzaSyDfrL3Y8WgUgZHqeXPVxE6gcJpfJw-XMso"
        }
      ],
      "services": {
        "appinvite_service": {
          "other_platform_oauth_client": [
            {
              "client_id": "832059417620-j2ggejoicgaog8pvqvft4d3cqa5kmffa.apps.googleusercontent.com",
              "client_type": 3
            }
          ]
        }
      }
    },
    {
      "client_info": {
        "mobilesdk_app_id": "1:832059417620:android:16a3dd9607a09447393301",
        "android_client_info": {
          "package_name": "my.app.beta"
        }
      },
      "oauth_client": [
        {
          "client_id": "832059417620-mut1fs6gkgq1kht3bc4r1vqoseo9dqvo.apps.googleusercontent.com",
          "client_type": 1,
          "android_info": {
            "package_name": "my.app.beta",
            "certificate_hash": "2e8f0610c1bc5acf5e0ac5580e46bb862a611b47"
          }
        },
        {
          "client_id": "832059417620-j2ggejoicgaog8pvqvft4d3cqa5kmffa.apps.googleusercontent.com",
          "client_type": 3
        }
      ],
      "api_key": [
        {
          "current_key": "AIzaSyDfrL3Y8WgUgZHqeXPVxE6gcJpfJw-XMso"
        }
      ],
      "services": {
        "appinvite_service": {
          "other_platform_oauth_client": [
            {
              "client_id": "832059417620-j2ggejoicgaog8pvqvft4d3cqa5kmffa.apps.googleusercontent.com",
              "client_type": 3
            }
          ]
        }
      }
    }
  ],
  "configuration_version": "1"
}